4 Example Model 3: Censored outcome and censored predictor – Bayesian censoring
…
Again, we can choose whatever parameters we want for the simulation. I played around with the simulation until I got a plot I thought looked about right. Those simulation parameters are printed below.

List of 8
 $ n    : num 400
 $ alpha: num 1
 $ beta : num 4
 $ sigma: num 5
 $ y_min: num -9
 $ y_max: num 12
 $ x_min: num -1
 $ x_max: num 2

So with those parameters, we can then simulate some data according to this generative model.

# A tibble: 400 × 5
    x_star      mu  y_star       x       y
     <dbl>   <dbl>   <dbl>   <dbl>   <dbl>
 1  1.80     8.19   7.08    1.80    7.08  
 2  1.16     5.64   6.71    1.16    6.71  
 3  0.155    1.62   6.05    0.155   6.05  
 4  0.0988   1.40   1.24    0.0988  1.24  
 5 -3.16   -11.6   -7.35   -1      -7.35  
 6 -0.682   -1.73  -1.46   -0.682  -1.46  
 7  1.56     7.25   3.40    1.56    3.40  
 8 -0.195    0.219 -0.216  -0.195  -0.216 
 9  0.628    3.51   7.10    0.628   7.10  
10  0.821    4.28   0.0773  0.821   0.0773
# ℹ 390 more rows
…
stan_data |> print(n = 5)

# A tibble: 400 × 6
        x   x_l   x_u     y   y_l   y_u
    <dbl> <dbl> <dbl> <dbl> <dbl> <dbl>
1  1.80      -1     2  7.08    -9    12
2  1.16      -1     2  6.71    -9    12
3  0.155     -1     2  6.05    -9    12
4  0.0988    -1     2  1.24    -9    12
5 -1         -1     2 -7.35    -9    12
# ℹ 395 more rows
…
