Bayesian censoring - 6 Example Model 5: Interval Censoring
…
    return(out)
}

sim_data <- do.call(gen_data, sim_parms)
print(sim_data, n = 5)

# A tibble: 210 × 5
      x l_lambda lambda t_star     t
  <int>    <dbl>  <dbl>  <dbl> <dbl>
1     4     0.6    1.82  0.516     1
2     3     0.95   2.59  3.32      4
3     4     0.6    1.82  2.06      3
4     1     1.65   5.21 11.0      11
5     1     1.65   5.21  9.95     10
# ℹ 205 more rows
…
